/* XPM */
/* $XFree86$ */
static char * XFree86[] = {
"208 104 129 2",
"  	c None",
". 	c #262E14",
"+ 	c #FEFEFE",
"@ 	c #C3C7BD",
"# 	c #6C7858",
"$ 	c #1E2044",
"% 	c #4E5C36",
"& 	c #160A8E",
"* 	c #1F0ED6",
"= 	c #5951B3",
"- 	c #5D51D8",
"; 	c #323E2E",
"> 	c #1C0AC0",
", 	c #646C5D",
"' 	c #9DA492",
") 	c #4A40AC",
"! 	c #5441FA",
"~ 	c #747980",
"{ 	c #1A0AB6",
"] 	c #2D3A16",
"^ 	c #DBDDD6",
"/ 	c #23292B",
"( 	c #4A38F7",
"_ 	c #3A30A4",
": 	c #61667A",
"< 	c #1A0AAC",
"[ 	c #4431F7",
"} 	c #747690",
"| 	c #4D41C4",
"1 	c #2E2697",
"2 	c #2C2C71",
"3 	c #A2A2B2",
"4 	c #1B1958",
"5 	c #36461A",
"6 	c #2B2299",
"7 	c #675CC3",
"8 	c #E8E8F1",
"9 	c #3B28F3",
"0 	c #9597A3",
"a 	c #4335CC",
"b 	c #180AA4",
"c 	c #46542F",
"d 	c #4135B4",
"e 	c #20205A",
"f 	c #281E98",
"g 	c #3522EC",
"h 	c #2D2F5F",
"i 	c #6A5FD6",
"j 	c #3223C9",
"k 	c #AAA6DB",
"l 	c #8F88D4",
"m 	c #1A1569",
"n 	c #33421A",
"o 	c #3225B5",
"p 	c #311EEB",
"q 	c #241A98",
"r 	c #C8C9CF",
"s 	c #373D59",
"t 	c #B5B0E5",
"u 	c #EEEEF4",
"v 	c #170B9E",
"w 	c #263212",
"x 	c #9790D6",
"y 	c #2A20AB",
"z 	c #3B4928",
"A 	c #7971CE",
"B 	c #2C3150",
"C 	c #281EA5",
"D 	c #2617C4",
"E 	c #877CEC",
"F 	c #62704A",
"G 	c #261AB4",
"H 	c #1E0CD0",
"I 	c #181174",
"J 	c #2D1AE6",
"K 	c #D0D3CA",
"L 	c #2B352C",
"M 	c #170B9A",
"N 	c #A094FC",
"O 	c #808585",
"P 	c #F7F7FA",
"Q 	c #1F187F",
"R 	c #6E5DF9",
"S 	c #E0DFF3",
"T 	c #303E16",
"U 	c #525577",
"V 	c #210EDF",
"W 	c #788366",
"X 	c #343D43",
"Y 	c #ABB2A2",
"Z 	c #211694",
"` 	c #7C6AFB",
" .	c #261AAC",
"..	c #5C6A44",
"+.	c #A29BDF",
"@.	c #2316B6",
"#.	c #6863B0",
"$.	c #252079",
"%.	c #261AA3",
"&.	c #D3D6CE",
"*.	c #BEBAE7",
"=.	c #2A16E5",
"-.	c #9588FE",
";.	c #2212C5",
">.	c #160C84",
",.	c #7F6FF6",
"'.	c #AEA5FB",
").	c #756DC1",
"!.	c #614EFC",
"~.	c #170B96",
"{.	c #2A3615",
"].	c #CCC8ED",
"^.	c #5C50D1",
"/.	c #7866FC",
"(.	c #837CC7",
"_.	c #1E0AC8",
":.	c #2416A3",
"<.	c #8F9782",
"[.	c #D7D4EE",
"}.	c #272B43",
"|.	c #57643F",
"1.	c #2212D0",
"2.	c #2C2A86",
"3.	c #B5B9AE",
"4.	c #4F565E",
"5.	c #3A4A1B",
"6.	c #6856FA",
"7.	c #2C343F",
"8.	c #858E74",
"                                                                                                                                                                                    B 6 f ;.* * * * * * _._.H _._._._._._.;.q %.$.%.q q q q                                                                                                                                                                                     ",
"                                                                                                                                                              5 5 5 5 5 5 5 5 5 n X 6 H * * H _._.H _.H * * H * * * * * * > H ;.f :.H ;.:.H H H _._._._._._.> H Z                                                                                                                                                               ",
"                                                                                                                                                5 5 5 5 5 5 5.5.5.5.5.5 5 ; X X 6 ;.* _._.H V * H V H H H H H H H H _.H _.* H _._.H _._.H H > H H H H H H H > H > _.> > > > > {                                                                                                                                                 ",
"                                                                                                                                    5 5 5.5.5.5.5.5.5.5.5.5.5 5 5 5 5 5 X h 2.f * H V V H H H V H H H V H H H H H H V H * _.* _.;.@.2 B 7.X ; 7.7.B $.q > > H > H > H H H H { f $.q Z :.Z Z                                                                                                                                     ",
"                                                                                                                            6 C G 1.H 1.h 7.5 5.5.5.5.5 5 5.5.; h 2 1 C 1.V ;.* ;.@.C G V H V H V H V H V H V H H H H H * _.* @.2 L 5 n n ; 7.n n 5 n 5 ; L 7.2 f { > ;.v H :.q e $.{ > > { > { { {                                                                                                                             ",
"                                                                                                                  ;.V V V H V H V H * 1 1 X 5.5 5 5 5 ; s 2.@.V V H V H H ;.1 B X h 2.G H V _.V _.V H V H V H V H H H ;.6 2 ; n 5 5 5 7.2 H C B n n n n n X 2 q h $.$.$.; $.$.2 B $.$.q Q :.q < q 7.$.{ { { {                                                                                                                   ",
"                                                                                                            h X 7.h 2 C V V V V V V C ; z 5.5.5.5.h D H H V V V H V V V V H V * V H * H H V _.V _.V _.V _.H V _.V ;.h n 5 5 5 n 5 n h _.H { ; 5 n 5 n n T n ] B 7.n n T n n T n n n n n T ] n T 7.7.] 7.$.}.}.h }.L                                                                                                             ",
"                                                                                                    h B 2 2 1 6 X X X s 2 ;.V _.V V C ; 5.5.5.X G V V V V V V V V _.V _.V V H H V H V V H V _.V V H ;.* V _.V H H * 2 n n X ; X X 5 ; h ;.* H f 2 6 $.B h 2 n X L ; n n T n n T n T T n T T T T ] T T ] 7.Q L }.7.L ] ] ] ]                                                                                                     ",
"                                                                                              h G D 2 2 1.V y s X X G V V H V V H V V 1.6 y 2.* H V V _.V _.V _.V V V H V V V V _.V _.H V H H V * 1 ; h * H V H V H 1.@. .$.;.B 5 5 2.;.H H $.q L 5 ; n n n n 5 n ; 7.5 n n n T n n T n n T T n T T T T T ] T ] ] ] T ] ] ] ] ] ]                                                                                               ",
"                                                                                        G 6 X ; 1 y D D 6 C h 2.C V H V H V V V V V V V H H V V H V V V V V V V V V V V H H H V V H V H H V H @.C C 7.X 6 H H H H H H _.2 h C $.2.d - E a ;.X n 5 5 n n n n n n n n n n n n n n n n n T T n n T T n T T T T T T T T ] T T ] ] ] ] ] ] ]                                                                                         ",
"                                                                                  2.B h s ; h 1 C 1.6 B z X C D 2.C V V V V _.V V V H V V V V V V _.V _.V _.V _._._._.V V V V V H V H V H V 2 5 2 1.A ].K ].].].].*.].].].r ].~ r u + + 4.] 5 5 n 5 n 5 n n n 5 n n n n n n n n T T n n T T T T T n T T T T T ] ] T ] ] T ] ] ] ] ] {.] ] ] {.                                                                                  ",
"                                                                              s 5 z 5.; 1 V V V * 1 z 5.5.z ; 5 5.1 V _.V _.V _._.V V H V V V V _._.V _.V _.V _.V V V _.V _.V _._.H V H H ;.2 6 * @.r + K 3 l S + 8 ' ' 3.P P c 5 8.+ ^ n 5 n n 5 n 5 n 5 5 5 n n n n n n T n T n n T T n n T n T T T T T T T T T ] T T ] T T ] ] ] ] ] {.{.] {.{.                                                                              ",
"                                                                        5.; 5 5 5 X 1 V V V V V G z 5.5.5.5.z 5.5.; 2 y V V _.V _._.V _._._._.V V V _.V _.V _.V _._._.V _.V _.V V _.V H V V H V * j u /. . .h 8 + <.5 5 5 Y @ 5 5 Y + ' 5 5 5 n 5 n n n n n n n n n n n n T n n n n n T T n T T T n T T T T T T T T ] T ] ] ] ] ] ] ] ] ] ] ] ] ] {.{.{.                                                                        ",
"                                                                    B 5 5 5.z 5.s 1.H V V V V C X 5.z 5 z 5.z 5.5.X s 1 V _._.V V _._.V V V V _._.V _.V _.V _._.V V _.V _.V V _.V H H V H H H H * - Y h ; 5.F + + F 5 5 5.' <.5 5 8 + F n n n 5 n 5 5 n n n n n n n n n n n n n n n T n n T n n T T n T T T T T T ] T ] T T T ] ] ] ] ] ] {.] {.{.] {.{.{.{.                                                                    ",
"                                                                X X s 5 z 5.5.5.5 X s 2.C H s 5.5.5.5.5 5.5.5 X B C 1 ;.V V V _.V V V _._._.V _.V _.V _.V _.V V _.V V _.V _._.V _.V H H V V H H H ,.! 6 ; 5.' + 8 5.5 5 5 ' % 5 ..+ u 5.5 5 n 5 n n n n n 5 n n n n n n n T T T n n T T n T T n T T T T T T T T T T T ] ] ] T T T ] ] ] ] {.] ] {.] {.{.{.{.{.{.                                                                ",
"                                                            5.5.z ; ; 5 ; 5.5.5.5.5.z n ;.2 5.5.; 5.z B 2.C D V D s X B D V V _._._.V _.V V _._.V _.V _.V V _.V _._.V _.V _._.V _.H H V _.V V H H * * * C 5 &.+ 3.5 5 5 5 5 5 L l + @ 5 5 5.F c 5 5 5 5 5 n B f U , 4.2.$.] n n T n n n T T 7.] T T T T T T T ] T ] T T T T ] ] ] ] ] ] ] ] ] ] ] {.] ] {.{.{.{.{.{.                                                            ",
"                                                        5.5 5.5.5.5.5.X z 5.5.5.5.5.5.z 5 z 5.5.5.X s X 6 V * V ;.1.D V 1._.V V _.V _.V _.V V _.V _._.V _._.V _._.V _.V _.V V _.V H V H H V 6 2.2.2.$.C h % + + } 2 7.2.@.@.7.; @ + } 7.8.P + 8 5.n n n n ; l S *.t + *.1 ] n n n T T ; q ;.{ ;.$.; T T ; L T T T T ] ] ] T ] ] ] T ] ] ] ] {.{.] {.{.{.{.. w {.w {.{.{.                                                        ",
"                                                    5.5.5 5.5 5 5.z z h 5 5.5.X 5.5.5.5.5.5.5.z n z 5.X C G G V V V V V V _.V _._.V _.V _._.V _.V V _.V _._.V V _.V _.V V _.V _.V H H V H @.n 5 5 5 5 5 5 8.+ + j * * _.@.6 1.s P P _ E S +.P + % n n n % [.S a _.H [.+ a H $.L T n n T $.{ ;.e B 7.T T e ;.B ] T ] T T T ] 7.}.L L ] ] ] {.] ] {.] ] {.] e L {.{.{.w w w w                                                     ",
"                                                2 5 5 5.5.5.5.5.5.5.5 z z ; 2.D ; z 5.5.5.5 5.5.z s h 2.6 1.V V V H V V V V _.V V _.V _.V _.V _._.V V V V V V V V V V V V V V V V V H H H G 5 5 5 5.5 5 5 @ P ].* _.* H @.h H i + [.~ K 1 a + P 5.; }.s ^ u ) $.h X P P d Z ;.;.7.T T n T $.H Z e T T T 7.$.e T T T ] ] T ] }.{.{.L ] ] ] ] ] ] ] {.] {.{.w {.{.{.{.{.{.{.w w e                                                 ",
"                                              V h 5 5.5.5 5.5.5.5.z 5.5.X s 2.2 G y ; ; 5 z 5.h D * G V V V H V V _.V V _.V V _.V _.V V V V V V V V =.V =.V =.=.=.=.=.V =.V =.V V V V V V h 5.5.5 5 5 5 5 u + E H * H * { 6 * +.+ '.[.s @.A + r T 6 * t + 8.T 5 5 @ + ' n T T ] T n n T T T B { > q }.T T ] T T T T T T ] ] T ] ] ] ] ] ] ] {.] {.] {.] {.{.{.{.{.{.{.{.w {.w $ ~.                                              ",
"                                          * * G 5 5.5.5.5.5.5.5.5.5 5.5.5.B s X 2.s s X 5.z 2.* V V V V V V H V V _._.V _._._.V V V V V =.=.=.J J J p p p p p p p p p p p J J =.J J =.=.=.2.X 5 z 5 n B = + + | * H H ;.;.H @.S + u ).@.* t + (.2 B = + u X n ..K P <.5 n T n T T T L T T T ; ;.{ Z }.; T T ] T ] ] ] T T ] T T ] L {.] ] ] ] ] {.] {.] {.{.{.{.{.w w {.w {.{.w / I M                                           ",
"                                        V H 1.2.; 5 5 5.5 5.5.5.5.5.5.5.X 2.5 h s 5 5 5.2.* V V V V V H V V _._.V V _.V V V V V V =.J J J p p g 9 g 9 9 9 9 9 9 9 9 9 9 9 g 9 g p p p p J J J D 2.G D ;.N + u X ; ; n ; ; ; |.+ + k ;._.1.P + a { Z '.P S k ^ S 3 c n ; 7.n T n n ; ; T 2 T ] Z { > Z T T T T ] T T T ] ] T ] ] T ] ] ] ] ] {.] ] {.] {.] {.] {.{.{.{.{.{.w w w w w $ >.                                        ",
"                                    * H V H 1.X z 5.5.5.5.5.5.5 5.5.5.5 z z 5 z 5 z s 6 * * V H V H V V _.V V _._.V V V V =.=.J p p g g 9 9 [ [ [ [ [ [ ( ( [ ( [ [ [ [ [ 9 [ 9 9 9 g g p p p _ z s s X ^ + 3.5 5 5 5 5 5 n <.+ P j * _.^.+ S 1._._.S + k - 9 ;.H { f Z q n T T T T T T ] ; T ; 7.$.$.L T T T T ] ] T T ] ] ] ] ] ] ] ] ] ] ] ] ] {.] {.] {.{.{.{.{.{.{.{.w {.w w w w $ >.~.                                    ",
"                                  H V H V V B 5.5.5.5 5.5.5 5.5.5.5.5.5.5 5.5.5 5 2.@.V V V H H H V _._.V _.V V V V V =.=.p p g 9 9 9 [ [ [ [ ( ( ( ! ( ! ! ! ! ! ! ( ( ( ( [ [ [ [ 9 9 9 o ) c c c c |.+ + W 5 5 n n 5 5 5 K + -._._.H x + N _.* _.P + A > { H { H C @.{ ; n n n n T T T T T T T T T T T T T T T T ] ] ] ] ] ] ] ] ] ] {.] {.{.{.] {.{.{.{.{.{.{.{.w w w {.w w {.w w . I & &                                   ",
"                                H H V _.V 2 z 5.; 5.5.5.5.5.5.5.5.5.5.5.5.5.5.5.z @.V V V H H V _.V V V _.V V V V =.p p g 9 9 9 [ ( ( ( ! ! ! ! !.! !.! !.! !.! !.! !.! ! ! ! ( ( ( [ [ ) % % % c c c <.+ + % 5 5 5 5 n n c P + 4.7.2.H [.+ - (.} 2 S + *.H H > H a ].a q T T T T n n T T T T T T T T ] ] T ] ] ] T T T T T ] T ] ] ] ] ] ] ] ] {.] ] {.{.{.{.{.{.{.{.{.w {.{.w w w w w 4 >.& &                                 ",
"                              V V _.V H C 5.5.5.5 5.5 5 5.5 5.5.5.5.5.5.5.5.5.5 2.V V H H V V V V _._.V V V V =.J p g 9 9 [ [ ( ( ! ! ! ! !.!.!.!.!.6.!.6.!.6.!.!.!.!.!.!.! ! ! ( ( ( [ U |.|.% % c % 8 + u c 5.5 5 n 5 5 W + ^ n n n z + + N 3.n T ' + + t = : +.8 U h 7.T n n T T T T T T T T T T T T T ] T T T ] ] n z n T ] ] ] ] ] {.] ] {.] {.{.{.] {.{.{.w {.{.{.{.w w w / }.z U : & I & &                               ",
"                          * H 9 6.6.6.6.~ W W W W W W W W W W W 5.5.5.5.5.5.n = i 6.6.6.6.!.6.!.6.6.6.6.R R R /././.` ` ,.,.E E E -.-.-.-.-.-.N -.N N -.N -.N ,.6.6.6.!.6.!.!.! ! ! ( ( : |.|.|.# @ 8 + + P ^ @ % n n n n Y P ' n n 5 % P + 3.5.n n 5.@ P + + P Y c T ; T T T n T T n n T T T L L ] T T T ] ] 5 W @ 8 P P P 8 @ W n ] ] ] ] ] {.] {.] {.] {.{.{.{.{.{.{.{.{.c <.*.P + + S b >.m & & &                           ",
"                        * H > /.+ + + + + + + + + + + + + + + K 5 5.5.5.z h 1.S + + + + + + + + + + + + + + + + + + + + + + + + + P + + + + + + + + + + + + + N R R 6.6.6.6.!.!.!.! - ..F ....|.|.|.|.% % % c c 5 5 5 5 n c c 5 n 5 n n ..F 5 n n T T n |.# F z T T T 2 h 7.T T T T T T T T T 7.{ Z L T T T W 8 + + + + + + + + + S F ] {.{.{.] {.] {.{.{.{.{.{.{.w w {.# K + + + + P ].} & & I & & & &                         ",
"                      H H V * a E *.+ + + + + + + + + + + ^ ' F 5.5 5.5.B V =.` +.+ + + + + + + + [.-.N ].+ + + + + + + + + + + + + + + + + + + + + + + + + + ,./.R R R 6.6.!.!.- : # # F ....|.% % % c 5.c 5.5 5 5 n 5 n n n 5 n n n 5 n n n n n n n n n 5 n n n T T ] q { 7.n n T T T T T T T $.{ Z L T ' + + + + + 3.# 8.P + + + P W ] ] {.] {.{.{.{.{.{.{.{.{.{.# ^ + + + + + Y ) & I I & & m & & & &                       ",
"                    H H H H H H H _.6.P + + + + + + + + u 5.n ; 2.y 2 X y V * * V l + + + + + P ,.J J J g '.+ + + + + + + + S N '.'.'.'.'.t [.u + + + + + + 8 ` /./.R R 6.6.6.6.~ W # F F ......% % c c c 5.5.5.5 n n n n n 5 n n n n n n n n n n T T n n T n T T n n n L @.{ }.T T T T T T T T T 2 { Z 0 + + + + + &.n ] T 8.+ + + + + |.{.] {.{.{.] {.{.{.{.w c @ + + + + + ^ % w $ & & 4 & m $ & & & & &                     ",
"                  H H V H V H H V H * +.+ + + + + + + + 8 C y 1.* * * X G * V V H E + + + + S ! 1.=.J p g ` + + + + + + + + +.6.R R /.` ` ` ` ,.'.u + + + + *.` /./.R R R 6.6.~ W # # # F ....% % % c 5.5.c 5.5 5 5 n n 5 n n n n n n n n n n n n n n n n T n n T T T T T B { Z B T T T ] T T T ] ] e ) P + + + + + # ] ] ] c + + + + + &.{.] ] ] {.] w {.{.{.# P + + + + + 3.; w {.w $ & & >.$ $ I & & & & &                   ",
"                V H _.V _.V H V H H * d P + + + + + + + P [ * * V V * X 1.H V V J S + + + ].9 =.=.J p g 9 -.+ + + + + + + + ` R R /./.` ,.` ,.` ,.E u + + + N /././.R R 6.!.} W W # # F F ....|.% % c c c 5.5 5 n n n 5 n n n n n n n n n n n n n n T T T n T T n T T T T T q { Z L T ] T ] T ] T ] T @ + + + + + P 1 Q Q Q $.u + + + + + |.{.{.{.{.{.] {.] ' + + + + + + ' w w . . . w m & & m & & & & & & & &                 ",
"                H H V H V _.V _.V V H  .+.+ + + + + + + + E * H V * V @.* V H V t + + + t J V =.=.p g 9 [ ].+ + + + + + + S R R R /./.` ` ` ,.,.,.,.'.+ + + ,./.R R R R 6.#.W W # # F F F |.% % % c c 5.5.5.5 5 n 5 n n n n n n n n T T n T T n n n n n T n n T n T n T T T ] q { 7.T T T ] T ] T ] z + + + + + + S { < < < < 8 + + + + + 8.{.{.{.{.{.w T 3.+ + + + + + ' ] w w w w . w / & & & & & & & & & & &                 ",
"              H H V _._.V _.V _.V H H 2.a + + + + + + + + S V V V H * * V V H N + + + '.1.V 1.=.=.J p g [ u + + + + + + + t 6.R /.R /.` ` ` ` ` ` ,.,.P + S /.R R R 6.!.6.# # W # # F ..|...% % c c c 5.5.5 5 5 n n n n n n n n n T n n T n n T T T T T n T T T T n T T T T T B { $.T T T T T T T T W + + + + + + ^ v { { v ;.8 + + + + + ' ] w ] {.{.T @ + + + + + + @ ] w w w w w w . / & & & & & & & & & & & &               ",
"            _.H H H V V _.V _.V _.V H C ;.*.+ + + + + + + + 6.H H G y 2.@.* -.+ + + -.V V V V =.J p g 9 /.+ + + + + + + + E 6.R R /./.R ` /.` ` /.` /.8 + *.R R 6.6.6.!.!.#.# # F F ....|.% % c c 5.5.5.5.5 n 5 n n n n n n n n n n n n n n n n n n n T T T T T T T T T T T n L { { Z L T ] ] ] T ] ' + + + + + + S < < { < < P + + + + + ' ] {.{.{.] 3.+ + + + + + 8 ; w {.w w w w w . / & & & & & & & & & & & & &             ",
"          H H H _._.H _.V H V H V H H @.;.- + + + + + + + + *.* * 1.* D h 3 + + + A V H H =.=.=.J p g 9 +.+ + + + + + + u 6.!.6.6.R R R R R /.R R R /.].+ -.6.6.6.!.!.! ! U F F F ....% % c c c c 5.5.5.n n n n n n n n n n n n n n n n T T T T T T T n T T n T T T T T T T ] T L Z { Q ] T T T ] ] ' + + + + + + P G < < < y P + + + + + 8.{.{.{.w ' + + + + + + + ..{.{.w w w w w w w 4 >.& & & & & & & & & & & & &           ",
"          H H V H V _.V _.H _.H H V H V V C S + + + + + + + + a * * * =.k + + P 8.2.1.1.V V 1.=.J p p 9 S + + + + + + + *.!.!.!.!.6.6.R R -.'.,.R 6.R '.].R !.!.!.! ! ! ! = F ....% % % % c 5.5.5.5.5 5 5 n n n n n n n n n T n T T T n n n n n n T T n n T T T T T T T T T T T T B { { $.] ] ] ] ] ' + + + + + + + ^.b { < | + + + + + + % {.{.{.F + + + + + + + Y . w w w w w / $ $ m & >.>.& & & & & & & & & & & &           ",
"        H _._.H H H _.V _.V V _.V H H H H h <.+ + + + + + + + N H H =.*.+ + P 7 @.;.* ;.V V V =.=.J p ! + + + + + + + + -.! !.!.!.!.!.!.6.8 + /.!.!.!.!.!.!.! ! ! ! ( ( ( % ..% |.% c c c c c 5.5 5 5 n n n n n n n n n T T n T n n n T T T T T T T T T T T T T T T T T T T T T ] T Q { b 7.] ] T ] W + + + + + + + k < < < A + + + + + @ {.{.{.5 u + + + + + + u C . w w w w w I >.I & & & & & & & & & & & & & & & & &         ",
"        H H H H H H H H H H _.V _.V H V H G z P + + + + + + + u J J ].+ + u ! * * H * H * 1.1.=.=.=.J E + + + + + + + + !.! ! ! ! ! ! ! t + [.!.! ! ! ! ! ! ! ( ( ! R E +.<.% % % c c F Y Y ..5 n n n n n n n n n 5.F <.Y Y Y 8.|.T ] T T T T T n T T T T T T T T % ~ ' Y Y ' # 5 T ] e { }.T ] T ] c + + + + + + + + | b b *.+ + + + P _ }.{.{.Y + + + + + + + (.b e . w w . w m I 4 & & & & & & & & & & & & & & & & &         ",
"      H _.H _._.H H H H V _.V _.V _.V H H H D 3 + + + + + + + + -.[.+ + 8 ( * H H V H H V H V V 1.=.J *.+ + + + + + + ].[ ( ( ! ! ! ! N + + '.! ! ! ! ! R -.+.].8 P + + + 8.c c c c Y P P + u c n n n n n T n |.Y u + + + + + + + 3.; L T n T T T T T T T T 5 O &.P + + + + + + u # T T }.$.{.7.e e Q [.+ + + + + + + [.;.| P + + + P 7 b m w |.+ + + + + + + u | #.x 0 O % w w . I & & & & & I & & & & & & & & & & & & &       ",
"      _.H H H H H H H H H H H H H V _.V H H H [ + + + + + + + + + + + S a H H H H H V H V H V V 1.=.g P + + + + + + + N [ [ [ [ [ ! t + + + R [ [ [ [ ! + + + P + + + + P c c 5.% ^ P + + + + # T n T n n c 3.+ + + 8 Y <.Y P + + + 3.n T n n T T T T T n # 8 + + + @ <.<.K + + + P |.T ] e Z { { { { ).+ + + + + + + + t 8 + + + u ^.b b b }.r + + + + + + + + + + + + + + @ z . / >.& & & & 4 & & & & & & & & & & & & &       ",
"    _.H H H _.H H H H H H H H _.H H H V H H _.* *.+ + + + + + + + + [.g H H H H H V H H H H * V * * 6.+ + + + + + + + R ( !.6.,.t u + + + 8 [ 9 9 9 9 [ -.E ,.*.+ + + + *.y ; % ^ + + + + + + ..n n n n # u + + P 8.n T T T 8.+ + + + % T T T T T T T z 3.+ + + r % ] T ] 5 ^ + + + @ T T L I Z Z Z $.}.8 + + + + + + + + + + P k o b b b & = + + + + + + + + + + + + + + + + u c . 4 & & & & m & & & & & & & & & & & & & &     ",
"    _._.H _.H _._._._.H H H H H H H H H V H H H - + + + + + + + + S J H H 1.6 @.f H * H * ;.* H * 1.+.+ + + + + + + + + + + + + + + + + + t g g g p p j J J J - + + + + E * j &.+ + + + + + + c n T n <.+ + + ^ % T T T T T % + + + + F T T T T T T c ^ + + + ' T T T T ] T Y + + + &.] ] T {.L {.{.] {.: + + + + + + + + + *.o b b b b b b t + + + + + + + 8 *.+.S + + + + + + ^ ] / & & & & >.I & & & & & & & & & & & & &     ",
"  _._.H H _.H H H H _._._.H H V H H H H H H H H V S + + + + + + + + 9 H f ; 7.7.5 X X B ; h %.* _.* S + + + + + + + + + + + + + + + + + + /.J J J D =.D =.D 1.A + + + + a 1.*.+ 8 F @ + + + @ T T 5 <.+ + + &.c T n n n n n # + + + + ..T T T T T c ^ + + + 8.] T ] ] ] ] ] K + + + r ] ] ] ] ] ] ] ] L q ].+ + + + + + + + u o b b b b b 1 P + + + + + + + ) & & Z [.+ + + + + + 8.$ & & & & & & >.& & & & & & & & & & & & &   ",
"  _.> H _.H _._._._.H H H _._._.H H H H H H H H H ,.+ + + + + + + + 0 G ; 5 X X n n n 5 5 X h 6 * a + + + + + + + + *.t *.].S + + + + + P j D ;.D 1.V 1.* * * '.+ + + [.H l + S z n 8.+ + P |.n n W + + + u c n T T T T T n @ + + + 8 5 T T T ] n &.+ + + Y ] ] T T T T T c + + + + <.] ] ] {.] ] {.T ~ [.+ + + + + + + + + + ].v b & b b (.+ + + + + + + S M b & & ) + + + + + + S & & & & & >.>.I & & & & & & & & & & & & &   ",
"  H > H _.H H H H _._._.H H H _._._.H H V H H _.H J P + + + + + + + u z 5 5 5 n 5 5 5 5 n n n ; f E + + + + + + + + 9 V V 1.1.g +.+ + + ].1.* * * * H H H H _.S + + + x ^.P P ( ;.$.n W ' |.n n % P + + + W ; }.}.L T T T F + + + + ' T ] T T T Y + + + ^ n T T ] ] ] ] T @ + + + P z ] {.] ] {.{.% &.+ + + 8 u + + + + + + + + (.b b b b ].+ + + + + + + l & & b & ~.u + + + + + + $.& & & & >.& >.>.& & & & & & & & & & & &   ",
"  > _.H H _._._._.H H H _._._.H H H _._.H H H H * l + + + + + + + + + 8.n n 5 5 5 5 n 5 5 5 5 n n K + + + + + + + ]._.* _._._.* * ].+ + E _._._._.H ;.> H H a + + + + 6.S + i { H > @.B T n T ; &.+ + + r Z > > > { 7.T % u + + + &.n T ] T T , + + + + # ] ] ] ] ] ] ] ' + + + + W ] ] {.] ] ] W P + + + 8 _ | + + + + + + + + P _ b & v + + + + + + + + d b & & b & S + + + + + + = & & & & & & 4 4 & & & & & & & & & & & &   ",
"> > > > H H H H _._._.H H H _._._.H H _._.H _.V +.+ + + + + + + + + + ^ 5 5 5 n n n 5 n n n n n c P + + + + + + + E _._._._.H _.> ` + + | * * _.> _.> > > > E + + + u t + +.H H { H > { f e ;.).+ + + + ^.> > > > > Z : u + + + ^ z T T T ] n ^ + + + &.] ] ] T ] ] n Y + + + + 8.] ] ] ] {.] W P + + + + i < < ).+ + + + + + + + k b b | + + + + + + + S & & & & & & 8 + + + + + + 7 & & & m 4 & >.>.& & & & & & & & & & & & & ",
"_.> H > H > > _.H H H _._._.H H H _._.H H H 1.t + + P S + + + + + + + + F n 5 5 5 n 5 5 5 5 5 n W + + + + + + + + | H _._._._._.> - + S _._.> * H > _.H H H ].+ + + 8 + [.D { H { { H { H { ;.S + + + S > { > { > j N P + + + @ z T T T T ] 8.+ + + + 8.] ] ] T T F S + + + P ~ L {.] ] ] {.|.P + + + + [.< b b < t + + + + + + + P o ~.A + + + + + + + +.& b & & b ~.P + + + + + + #.& & >.$ 4 & & & & & & & & & & & & & & & & ",
"H > > > H H H _.> _.H H H _._._.H H _.H _.=.*.+ + u ! - + + + + + + + + @ 5 n n n n n n n n n n 3.+ + + + + + + 8 * _.* H H H H > /.+ '.H > H > _.> H > { j P + + + + + | { H { H > > > > { /.+ + + + E > > > a +.u + + + 8 O n T ] ] ] ] T ^ + + + P z ] T 5 ~ K + + + + @ c {.] ] {.{.{.T ^ + + + + + (.b b b v o P + + + + + + + #.~.x + + + + + + + = & & & & & 1 P + + + + + + #.& >.$ . >.& & & & & & & & & & & & & & & & ",
"{ > H > > > H H H H > _._.H H H _._.H H j [.+ + 8 | _.1.S + + + + + + + P % n n 5 n n n n n n n u + + + + + + + '.> _.> > _.H H > l + 7 _.> > H H > H { > i + + + + + x H ;.{ H { { H { > { ].+ + + + E (.'.8 + + + + S A @.}.T T T T T ] |.+ + + + ^ W ' K P + + + P 3.|.L ] {.{.] ] ] ] O + + + + + + _ b b b b v +.+ + + + + + + l b k + + + + + + P :.& & & b & = + + + + + + + ) m / . . 4 >.>.& >.& & & & & & & & & & & & ",
"{ > > > H > > > > H H H _._._.H H H _.9 [.+ + S a H * _.E + + + + + + + + ' 5 5 n 5 5 5 n n 5 ..+ + + + + + + + 7 H > H H H > H { J j H H H > > { H > H _.t + + + + S D H { H { H { { H { j P + + + + + + + + P [.x | H { :.] T ] ] ] ] T ' + + + + + + + + + u @ 8.z 7.Q e L ] ] {.{.{.{.r + + + + + S b b b v v b = + + + + + + + +.~.*.+ + + + + + ].& & & & & & (.+ + + + + + + $.4 . . . I m >.& & & & & & & & & & & & & & ",
"> > > > > H > H H > > > H H H > _.> a S + + S 9 H > _._.j u + + + + + + + u 5.n n n n n n n n ' + + + + + + + + z X $.;.{ > > H > H { > > H > H > { H { 1.u + + + + 7 H { { { { { { > { { - + + + + u *.+.A ^.y H > { { { Z L T ] ] ] ] T &.+ + + + ^ 3.' W % T L 7.] e < M . {.] {.{.{.X P + + + + + k b b b b b b %.+ + + + + + + +.& *.+ + + + + + x & & & & & & *.+ + + + + + 8 >.& / . . >.$ m >.& >.m >.& & & & & & & & & ",
"{ > > > > > { > > H H > > > H H H | u + + [.j _.> > H _._.+.+ + + + + + + + 8.n n n n n n n n &.+ + + + + + + r T n n 2 $.q Z ;.> { H H > { H > { H > H | + + + + ].> > { H H { H { > > > l + + + + *.> { > > { { { { { { { $.L T T T ] ] u + + + + |.] {.{.{.{.. L {.}.~.$.{.] {.] {./ d + + + + + + (.b b b & b v v u + + + + + + (.& t + + + + + + = b & & & & >.u + + + + + + ' >.& I $ 4 >.$ >.>.>.>.4 / 4 & & & & & & & & ",
"> { > > > > H > H { > H > H { > - P + + ].D _.H H > _._.* a + + + + + + + + ^ n n n n n n n c + + + + + + + + <.n n T n n T T L 2 { > { H { H { H { { H x + + + + i > { > { { { { > { { { N + + + + k { { { { { { { { { { < < Q L ] ] ] n + + + + + c ] ] ] ] {.L }.{.L w L w {.{.{.}.b d + + + + + + #.b & b b & b v P + + + + + + = & +.+ + + + + + _ & & & & & | + + + + + + + 4.>.>.& & & >.4 I & & & >.$ . $ & >.& & & & & ",
"> { > > > { > > > > > > > H H i P + + *.D _.> > > H _._._._.*.+ + + + + + + + F T T n n T n W + + + + + + + + |.n T n n n n T n T B $.;.{ H > > > H { ;.[.+ + + 8 ;.> { > { H > { { > { { +.+ + + + t { { { { { { { { { { { { { : ] ] ] 5 + + + + + ..] {.] {.{.L e {.] {.] ] z c w Q b d + + + + + + ^.b b b & b b y + + + + + + u :.& (.+ + + + + P ~.& & & & & x + + + + + + [.m 4 I I & & & & & & & & >.4 / / >.& & & & & & ",
"{ > { > > > H { H { H > > > E P + + *.D _.H H H { H { > H H i + + + + + + + + @ n n n n n n 3.+ + + + + + + 8 n n T T T T n T n n n T e H { { > { { > a + + + + N { { > { { { { > { > { { l + + + + 8 D { { { { { { < < { { G k P # ] ] ] P + + + + ' {.{.] {.{.w e w ] {.{., u ^ L M b  .P + + + + + | & & b b & & = + + + + + + +.& & ) + + + + + 8 & & & & & & S + + + + + + = >.4 $ / 4 & & & & & & & & I / $ >.& & & & & & ",
"  { { > { { > { > > > > { N + + + S D _.> { > { H > H > > H D P + + + + + + + + ..T T n n 5.P + + + + + + + 3.n T n n n T T n T T T T ] ;.{ H { H { > A + + + + | > { > { > { { { { { > { ^.+ + + + + l { { { < { < { { < | S + [.h ] ] T r + + + + 8 c ] {.] {.] }.}.{.] ' + + 8.w 4 b b ].+ + + + + = b & b & b b k + + + + + P _ & & & 8 + + + + S & & & & & = + + + + + + *.>.& & & & >.>.>.>.>.>.& & & & I >.>.& & & & &   ",
"  { { > > > > > > { H j *.+ + + + i * H { H H { H { H { > H > ].+ + + + + + + + r 5 T T n <.+ + + + + + + + <.n T T T n T T T T T n T 7.{ { { { { > H *.+ + + S H { { { { { { > { { { { { @.8 + + + + P ).{ { < { < { y +.P + *.G :.L {.] 8.+ + + + + &.c {.] {.L w e , ^ + P W w L m b b 7 + + + + + (.b b & b & d + + + + + + (.& & b & (.+ + + + 8 & & & & & t + + + + + 8 1 & & & & & & & >.>.>.& & & & & >.& & & & & & &   ",
"  { { { { { > { > { - 8 + + + + + ^.> { H { > { H { H > H > _.].+ + + + + + + + + 8.n n c u + + + + + + + + Y T T T T T n T T T T T ] $.> { H > { > y P + + + N { { > { > { { { { { { { { > (.+ + + + + + *.#.| | i k u + + +.;.{ Z {.] ] T 8 + + + + + u ' ..4.: <.&.+ + 8 |.w {.{.4 & b v *.+ + + + S b & b & %.[.+ + + + + k b & & & & v ^ + + + + ) & & & = + + + + + P = & & & & & & & & & & & & >.4 I & I & & & & & & &   ",
"  { { { { { { 1.- t + + + + + + + [.- j @.H { H { { H { G a x + + + + + + + + + + P Y <.8 + + + + + + + + + + ' |.c z T T T T T T L Z { { { { { > > 7 + + + + 7 { { { { { { { { { { { { { { > ].+ + + + + + + + + + + + 8 - b b b b . {.{.{.F P + + + + + + + + + + + + 3.s L {.w {.. v b & C [.+ + + + *.d %.= [.+ + + + + k ~.& & & & & & _ u + + + [.d I = u + + + + u = & & & & & & & & & & & & & $ . >.I 4 & & & & & & &   ",
"    { { { { { *.+ + + + + + + + + + + + ^.> { { H { > ;.S + + + + + + + + + + + + + + + + + + + + + + + + + + + + + 8 T T T T T ] $.{ H > > { { { { '.+ + + P j { { { { { { { { { { { { { < { y ].+ + + + + + + + + P x  .< < b < b }.{.] {.{.W P + + + + + + + + + ^ # {.e w w {.L w >.& b b %.*.+ + + + + + + + + + + u ).& & & & & & & & & d ^ + + + + P + + + + + r _ & & & & & & & & & & & & 4 $ . . I 4 4 & & & & & &     ",
"    { { { { * x +.k +.k +.k +.k +.'.+.+.H { > { { { > j +.'.+.k +.'.+.k k Y Y Y 3.Y Y Y 3.Y Y 3.Y Y 3.Y Y Y Y Y Y Y 8.] T T T ] $.{ > { { { { { { { x +.k +.l { { { { { { { { { { < < { < { { { ;.A [.+ + + + + [.(.j < < b < < b e {.{.] {.{.{.c 3.P + + + + u 3.F {.{.w e w w w w w ~.b & b & b = 3.P + + + + + + [.(.f & & & & & & & & & & & Z (.S + + + + + P *.7 & & & & & & & & & & & & & 4 . . . . / / 4 & & & & & &     ",
"      { { v ;.{ { { > > > > > > { { { > { { > { H > { H { > > > > { > > { q ] n L T n T T n n T n n T T T T T T T ] ] T T T T T $.{ { { { { { { { { { > { > { { { { { { { { { < < { { < { < < b < < { y | | d @.< < b < b < b < ~.L ] {.{.{.{.{.] {.] c ..|.c ] {.{.w w {.. w w w w / & b & & b & 4 w Q d = 7 7 ) %.& & & & & & & & & & & & & & & & & 2.= 7 7 ) Z & & & & & & & & & & & & & & I / . . . . / . 4 & & & & &       ",
"      { { { { { { { { { { > { > > > { > > > { { { { > { { > { { > { > { > { < $.] ] T ] ] ] ] ] ] ] T T T T T T T T T T ] ] T ] 2 b { { { { { { { { { { { { { { { { { v { < { b b b { b { < { < < < < < < < b { b < b < b < b b e {.{.{.{.{.{.{.w {.{.w L w {.{.w {.{.w {.w {.{.w w $ & & b & & $ . . I & & & & & & & & & & & & & & & & & & & & & & & & & & & & & & & & & & & & & & & & & & >./ . . . . w . . $ & & & & &       ",
"        b { { { { { { { { { { { { { { { { { > > > { { > { { > > { > { { > { { { $.T T T T T T T T T T T T T T T T T ] ] T T ] T e { { { { { { { { { < { < { < { b { { { b { { { { b < { b < b { b < { b < < b b < b < b b b b < . {.{.{.{.{.{.w {.w {.{.w {.w w {.w w w w {.w w w $ & b & >.$ . . . $ ~.& & & & & & & & & & & & & & & & & & & & & & & & & & & & & & & & & & & & & & & & >.$ / . . . . . . . . 4 & & & &         ",
"        < b { { { { { { { { { { { { { { { { { { { > { { > { { { { { > { { { { { < L ] ] T T T T T ] ] ] ] ] ] ] ] T T ] ] T ] T $.{ { { { { { { < { { { v { < { b { < b { b { b { b b b { < b < b b < b < b < b b < b b b b b b }.{.{.{.w {.{.{.{.w {.{.w {.{.w w w {.w w w / e >.M & & & m w w w w I & & & & & & & & & & & & & & & & & & & & & & & & & & & & & & & & & & & & & & & & >./ . . . . . . . . . . 4 & & & &         ",
"          { b b < { { { { { { { { { { { { { { { { { { { { { { { { { { { > { { { < 7.T T ] ] ] ] ] T T T T T T ] ] ] ] T T ] ] L v { { { { { < < { < < { { b { b { b { { b { b { b { { b b b b < < b < b b b b b b b b b b b b b I . w {.{.{.{.w {.{.w w {.w w w w w w w w / I b & b & b & I . . . $ & & & & & & & & & & & & & & & & & & & & & & & & & & & & & & & & & & & & & & & & >./ . . . . . . . . . . / >.& & &           ",
"          < b { b < b { b { < { { { { { { { { { { { { { { { { { { { { { { { { { { }.] T ] 8.' ' ' ' ' ' ' <.F n ] ] ] ] ] ] ] $.{ < { < < { { < { { v { { { { < b { b b b { b b b { b b { b { b b < b b b b b b b b b b b b b b b e w {.w w {.w w w w w w w w w w w w {.' 0 x x x x (.& & 4 w w . I & & & & & & & & & & & & & & & & & & & & & & & & & & & & & & & & & & & & & & & & >./ . . . . . . . . . . $ & & & &           ",
"            b b { < { < { < { v < { { { { { { { { { { { { { { { { { { { { { { { { $.] ] ] % O + + + r 3.@ u + &.% ] ] ] ] ] L Z b { b b { b b b < < { < b b b { b < < - S E b { b b { b b b b b b b b b b b b b b b b b b b b b b ~.. w {.{.w w w {.{.w w w w w w w w w 4.O + + u 7 6 & 4 w . . $ & & & & & & & & & & & & & & & & & & & & & & & & & & & & & & & & & & & & & & & & & 4 . . . . . . . . . . . I & & &             ",
"              b b b b b { b { { { b b { < < < { < { < { < { { { < { < < { < { { < Z ] ] ] ] T u + 3.T ] ] z &.+ S n ] L e v v { b { { { b { { b { b { b { b { b b { b *.+ P < b b b b b b b b b b b b b b b b b b b b & b b & b v b $.{.w w {.{.w w w w w w w w . w w . w z + + (.& & & 4 . . / I & & & & & & & & & & & & & & & & & & & & & & & & & & & & & & & & & & & & & & & & & 4 . . . . . . / / . . 4 & & &               ",
"                b { b b b b b { b { b b { < { < { b { < { < < < { < { { < { < < { v {.] ] ] c + + W ] ] ] {.W + + ~ e v { v { b { b { b b < { { b b b b b b b b < b b 7 S l b b b b { b b b b b b b b b b b b b b b b & b b b & b Z [.c w {.w w w w w w w w w w w . . L . ~ + + f & & & I . . 4 & & & & & & & & & & & & & & & & & & & & & & & & & & & & & & & & & & & & & & & & & & $ . . . / 4 $ . w / $ & & &                 ",
"                b b b { b { b b { b { b { b b b { < { b { { < < < < < < < { < < { v L ] ] ] 8.+ + z ] ] ] ] |.+ + O { { { { b b { b b { b b b b { b { b { b { b b b < b < b < b b b b b b b b b b b b b b b & b b & b b & b & b b x ^ . . w w w w w w w w w w w w w . $ m t + [.& & & & & I 4 & & & & & & & & & & & & & & & & & & & & & & & & & & & & & & & & & & & & & & & & & & & / . / 4 >.& I $ w / >.& & >.                ",
"                  b b b b b b b b { b b { b { b b < < < < b < { < { < { < < < { < v L {.] ] @ + &.T ] ] ] {.8.+ + # v b b b { { b b { { b { b b b < { b b b b b < b b b b b b b b b b b b b b b b b b b b b & b b b b b b b & ~.l + x . w w w w w w w w w . . . . . / >.& 8 + l & & & & & & & & & & & & & & & & & & & & & & & & & & & & & & & & & & & & & & & & & & & & & & & & & 4 / 4 I & & & >./ / >.& & I                   ",
"                    b b b b b { b b b b b { b b { b b b { < < < b < b < < < b < < < e {.{.n u + ' {.{.{.] T ^ + 8 7.) A +.].k b ;.x 8 ^.b b { 7 *.S S t _ { b b y 7 l *.*.b b b b b b ^.t [.8 *.d b & b & b d k [.].].= & b #.[.+ + ].Y z . . . w w . . w w w w . . $ >.) + + ) & & ) ).+.@ ).& q 3 S t >.& & & & & I (.r K ].l & & & & & & & & & & & & & & & & & & & & & & & & & I >.& & & & & >.I >.& & >.                    ",
"                      b b b b b b b { b b b b b b { b b b b b b < b { b b b < < < b Z {.] , + + |.{.] ] T 3.+ P U $.- ).u + A  .].+ + (.b o ].8 7 b a S u _ b b ^.(.P + x b b b b y ].8 = < = + [.& b b v k u (.:.~.x u :.b ).+.+ P A ).}.w w w . . w w . . . . w $ I & l + 8 & & >.(.3 + P _ d 8 ^ + + _ & & & & #.P t _ & ) P #.& & & & & & & & & & & & & & & & & & & & & & & & & & & & & & & I >.& & 4                       ",
"                        b b b b b b b b b { b b b b b { b b { b b b b b { b b < b < ~.w ] ' + + ' W # ' S + ^ |.Z v b { u + d *.l [.+ a d u P | b b b (.+ t b b b b 8 + = b b & o S S y v b d + S b & :.].P = & b d P + 6 b & (.+ *.& & >.. . w w . . w . . . . / & & & r + t & & & & = + S 6 ^ = q P + d & & & (.P +.>.& & r + A & & & & & & & & & & & & & & & & & & & & & & & & & & & & & & & >.& & &                         ",
"                          b & b b b b b b b b b b b b b b b b b b b b b < b b b b b Z {.] S + K ' @ &.r 3 F ] }.b b < d P S l l b d = %.S + l b b b b ).+ 8 b v v d + u < b b Z [.+ ) b v M t + l b M t + (.b & & d P k b & ~.].+ ).& & & $ w . . w . . w . . 4 & & & 6 P + 7 & & & & x + +.*.= & ) + u >.& & 7 P [.I & & M r S $.& & & & & & & & & & & & & & & & & & & & & & & & & & & & & & & & & &                           ",
"                              b & b b b b b b b b b b b b b b b b b b b b b b b b b b w c + + W {.{.{.] }.Q 4 ~.b b b l + ].*.v b b b (.+ 8 :.b b b b (.+ u b b v (.+ *.b & b (.+ t M & :.k + k ~.& = + S Z b & & & ~.& & & f P + o & & & $ . . . . . . . $ I & & & & #.+ + 6 & & & & ^ + r (.& & l + t & & >.8 + = & & & & >.~.& & & & & & & & & & & & & & & & & & & & & & & & & & & & & & & & &                               ",
"                                b & b & b b b b b b b b b b b b b b b b b b b b b b b }.8.+ P z {.{.{.w w e b b b v b ].+ u o b b b < 8 + x b b & b b k + [.& b b ].+ A & b v 8 P ).) l 8 [.7 ~.b b ].+ l & & b & & & b & & #.+ [.& & & & 4 / $ 4 4 m I & & & & & & & t + r & & & & 1 + + [.>.& & r + #.& & ).+ [.& & & & & & & & & & & & & & & $.= = s = & & ) >.& & & & & & & & & & & & & & &                                 ",
"                                  & b & b & b b b b b b b b b b b b b b b b b b b b b >.@ + K w w {.. }./ 4 b b b M y P + (.M b & b d + + ) b & b & :.u + l b & %.P + o & b = + + [.t l ) ~.& & & %.P + ) & & & & b & & & b k + x & & & & & & & & & & & & & & & & & & u + l & & & & ).+ P ) & & 1 P P 6 & & *.+ +.& & & & & & & & & & & & & & & 6 #.d 1 *.>.) 3 & & & & & & & & & & & & & & &                                   ",
"                                    & & & b & & b & & b & b b & b b b b b & b b b b b %.P + <.{.{.. L ~.v M b & b b #.+ 8 v b b b M 7 + + :.& b b b ).+ P _ b & 7 + [.~.b & A + u b & & & & b & ~.) + +  .& & & & & & & & >.8 + ) & & & & & & & & & & & & & & & & & ) + + d & & & & *.+ t & & & #.+ ].& & & ^ + ).& & & & & & & & & & & & & & & & l ~.1 x ) (.= & & & & & & & & & & & & & &                                     ",
"                                        & & b & & b & b & b & b & b & b b & b & b & b = + + |.w w / Q ~.b b b & b v t + x & b & & b = + P b b & & b S + x & b & k + x & & b A + P f & b & & M A ~.) + + _ & & & & & A Z & ) + u >._ 1 & & & & & & & & & & & & & & & l + u >.& & & I P + ) & & & k + l Q d >.S + l & & & & & ) ) & & & & & & & & & 0 & = = (.(.Q & & & & & & & & & & & &                                         ",
"                                          & & & & b & b & b & b & b & b & b & b & b b t + P ] w w w I & b & b & b :.8 + _ b & b b & y P P Z b & b k + *.v & & M 8 + | & & & ) + + +.& & & ) ].(.>.f P + l & & & Z k l & & (.+ *.6 [._ & ) ^ (.& & & & & & & & & & >.S + *.& & & & = + S & & & & u + = *.) & t + [.>.& & & #.r Q & f @ *.I & & & 1 = >.) 1 6 = I & & & & & & & & & & &                                           ",
"                                              & & & & & b & & b & & b & b & b & b o ).+ + P ~ c . / ~.& b & b & & | + S b & b & & b & (.+ k :.C +.P +.Z & b & d + P ~.& & & & t + + S k ].S = & & & x + + *.(.x 8 (.& & & +.+ [.[.= & >.t + P Q & & & & & & & >._ 3 + + [.) q & & x + x & & & f P + ^ ).>.& ) P + [.l l r *.f & & #.+ + = & & & & & & & & & & & & & & & & & & & &                                               ",
"                                                & & & & & & & & & b & & & b & & 1 +.k +.+.3 Y <.w / I b & & b & & 7 +.).& & & & b & & & 7 ].S K +.d & & & & & l + t & & & & & Z l [.8 ].A q & & & & & ).].8 [.+._ & & & & ) S r = >.& & = + 8 >.& & & & & & & 7 k +.k +.3 k #.& & l 3 d & & & I ].[.= & & & & ) t 8 S t 7 & & & & 1 ].r Z & & & & & & & & & & & & & & & & & & &                                                 ",
"                                                    & & & & & b & & & & & & b & b & & & ~.& e . . . / & & & & & b & & & & b & & & & b & & & & & & & & & & & & ].+ 7 & & & & & & & & & & & & & & & & & & & & & & & & & & & & & & & & & & >.u l & & & & & & & & & & & & & & & & & & & & & & & & & & & & & & & & >.& & >.& & & & & & & & & & & & & & & & & & & & & & & & & & &                                                     ",
"                                                        & & & & & & & & & & & & & & & & & & & $ . . I & & b & & & & & b & & & & b & & & & & b & & & & & & & 6 + 8 ~.& & & & & & & & & & & & & & & & & & & & & & & & & & & & & & & & & Z t t >.& & & & & & & & & & & & & & & & & & & & & & & & & & & & & & & & & & & & & & & & & & & & & & & & & & & & & & & & & & & & &                                                         ",
"                                                            & & & & & & & & & & & & & & & & & >.m / 4 & & & & & & & & & & & & & & & & & & & & & & & < = ~.& (.+ ).& & & & & & & & & & & & & & & & & & & & & & & & & & & & & & & & & & l ).>.& & & & & & & & & & & & & & & & & & & & & & & & & & & & & & & & & & & & & & & & & & & & & & & & & & & & & & & & & & & >.                                                            ",
"                                                                & & & & & & & & & & & & & & & & & >.4 $ >.& & & & & & & & & & & & & & & & & & & & & k + = d u x & & & & & & & & & & & & & & & & & & & & & & & & & & & & & & & & & & & & & & & & & & & & & & & & & & & & & & & & & & & & & & & & & & & & & & & & & & & & & & & & & & & & & & & & & & & & & & >.4                                                                 ",
"                                                                    & & & & & & & & & & & & & & & & & & >.& & & & & & & & & & & & & & & & & & & & & A P ].&.).& & & & & & & & & & & & & & & & & & & & & & & & & & & & & & & & & & & & & & & & & & & & & & & & & & & & & & & & & & & & & & & & & & & & & & & & & & & & & & & & & & & & & & & & & & & & >.m $                                                                     ",
"                                                                        & & & & & & & & & & & & & & & & & & & & & & & & & & & & & & & & & & & & & & >.f 6 & & & & & & & & & & & & & & & & & & & & & & & & & & & & & & & & & & & & & & & & & & & & & & & & & & & & & & & & & & & & & & & & & & & & & & & & & & & & & & & & & & & & & & & & & & >.4 $ . .                                                                         ",
"                                                                              & & & & & & & & & & & & & & & & & & & & & & & & & & & & & & & & & & & & & & & & & & & & & & & & & & & & & & & & & & & & & & & & & & & & & & & & & & & & & & & & & & & & & & & & & & & & & & & & & & & & & & & & & & & & & & & & & & & & & & & & & & & & & >.4 $ . .                                                                               ",
"                                                                                  >.& & & & & & & & & & & & & & & & & & & & & & & & & & & & & & & & & & & & & & & & & & & & & & & & & & & & & & & & & & & & & & & & & & & & & & & & & & & & & & & & & & & & & & & & & & & & & & & & & & & & & & & & & & & & & & & & & & & & & >.m 4 / . . . .                                                                                   ",
"                                                                                        $ $ I & & & & & & & & & & & & & & & & & & & & & & & & & & & & & & & & & & & & & & & & & & & & & & & & & & & & & & & & & & & & & & & & & & & & & & & & & & & & & & & & & & & & & & & & & & & & & & & & & & & & & & & & & & & & >.4 $ / . . . / /                                                                                         ",
"                                                                                              / $ m >.& & & & & & >.4 4 >.& & & & & & & & & & & & & & & & & & & & & & & & & & & & & & & & & & & & & & & & & & & & & & & & & & & & & & & & & & & & & & & & & & & & & & & & & & & & & & & & & & & & & & & & & & >.I $ / . . w . . .                                                                                               ",
"                                                                                                    . / $ 4 I m I 4 $ $ 4 >.& & & & & & & & & & & & & & & & & & & & & & & & & & & & & & & & & & & & & & & & & & & & & & & & & & & & & & & & & & & & & & & & & & & & & & & & & & & & >.>.& & & >.>.m 4 m I m $ / / w . . . .                                                                                                     ",
"                                                                                                            . . / / / $ / / m & & & & & & & & & & & & & & & & & & & & & & & & & & & & & & & & & & & & & & & & & & & & & & & & & & & & & & & & & & & & & & & & & & & & & & & >.4 $ . / / $ / / . . . / . / / . . . .                                                                                                             ",
"                                                                                                                  . . . / / . / >.& & & & & & & & & & & & & & & & & & & & & & & & & & & & & & & & & & & & & & & & & & & & & & & & & & & & & & & & & & & & & & & & I 4 $ / / / . . . . . . . . . . w . . . . .                                                                                                                   ",
"                                                                                                                            . / / $ 4 >.& & & & & & & & & & & & & & & & & & & & & & & & & & & & & & & & & & & & & & & & & & & & & & & & & & & & >.>.m $ $ 4 4 $ / . . . . . . . . . . . . . . . . .                                                                                                                             ",
"                                                                                                                                    . . / $ 4 4 I >.& & & & & & & & & & & & & & & & & & & & >.m m 4 4 $ $ / $ 4 4 4 $ 4 4 4 4 / $ / $ $ $ $ / / / . / . . . . . . . . . . . . . . . . . . .                                                                                                                                     ",
"                                                                                                                                                / / / / $ $ 4 m m 4 4 m 4 4 $ / $ / / / / . / / . . . . / . . . . . . . . . . / . . . . . . . . . . . . . . . . . . . . . . . /                                                                                                                                                 ",
"                                                                                                                                                              . . . / . . . . . . . . . . w w . . . . w . . . . . . . . . . w . . . . . . . . . . . . . . / . / .                                                                                                                                                               ",
"                                                                                                                                                                                    . . / / . / / / / / / / . . . . / / / / / / / . / / . /                                                                                                                                                                                     "};
